module gitlab.com/chicho69-cesar/apartments-clone-server

go 1.19

require (
	github.com/BurntSushi/toml v1.2.1 // indirect
	github.com/CloudyKit/fastprinter v0.0.0-20200109182630-33d98a066a53 // indirect
	github.com/CloudyKit/jet/v6 v6.2.0 // indirect
	github.com/Joker/jade v1.1.3 // indirect
	github.com/MicahParks/keyfunc v1.9.0 // indirect
	github.com/Shopify/goreferrer v0.0.0-20220729165902-8cddb4f5de06 // indirect
	github.com/andybalholm/brotli v1.0.5 // indirect
	github.com/aws/aws-sdk-go-v2 v1.17.8 // indirect
	github.com/aws/aws-sdk-go-v2/aws/protocol/eventstream v1.4.10 // indirect
	github.com/aws/aws-sdk-go-v2/config v1.18.21 // indirect
	github.com/aws/aws-sdk-go-v2/credentials v1.13.20 // indirect
	github.com/aws/aws-sdk-go-v2/feature/ec2/imds v1.13.2 // indirect
	github.com/aws/aws-sdk-go-v2/feature/s3/manager v1.11.63 // indirect
	github.com/aws/aws-sdk-go-v2/internal/configsources v1.1.32 // indirect
	github.com/aws/aws-sdk-go-v2/internal/endpoints/v2 v2.4.26 // indirect
	github.com/aws/aws-sdk-go-v2/internal/ini v1.3.33 // indirect
	github.com/aws/aws-sdk-go-v2/internal/v4a v1.0.24 // indirect
	github.com/aws/aws-sdk-go-v2/service/internal/accept-encoding v1.9.11 // indirect
	github.com/aws/aws-sdk-go-v2/service/internal/checksum v1.1.27 // indirect
	github.com/aws/aws-sdk-go-v2/service/internal/presigned-url v1.9.26 // indirect
	github.com/aws/aws-sdk-go-v2/service/internal/s3shared v1.14.1 // indirect
	github.com/aws/aws-sdk-go-v2/service/s3 v1.32.0 // indirect
	github.com/aws/aws-sdk-go-v2/service/sso v1.12.8 // indirect
	github.com/aws/aws-sdk-go-v2/service/ssooidc v1.14.8 // indirect
	github.com/aws/aws-sdk-go-v2/service/sts v1.18.9 // indirect
	github.com/aws/smithy-go v1.13.5 // indirect
	github.com/aymerick/douceur v0.2.0 // indirect
	github.com/eknkc/amber v0.0.0-20171010120322-cdade1c07385 // indirect
	github.com/fatih/structs v1.1.0 // indirect
	github.com/flosch/pongo2/v4 v4.0.2 // indirect
	github.com/go-playground/locales v0.14.1 // indirect
	github.com/go-playground/universal-translator v0.18.1 // indirect
	github.com/go-playground/validator/v10 v10.12.0 // indirect
	github.com/go-sql-driver/mysql v1.7.1 // indirect
	github.com/golang-jwt/jwt/v4 v4.4.2 // indirect
	github.com/golang-jwt/jwt/v5 v5.0.0-rc.2 // indirect
	github.com/golang/snappy v0.0.4 // indirect
	github.com/google/uuid v1.3.0 // indirect
	github.com/gorilla/css v1.0.0 // indirect
	github.com/iris-contrib/schema v0.0.6 // indirect
	github.com/jackc/pgpassfile v1.0.0 // indirect
	github.com/jackc/pgservicefile v0.0.0-20221227161230-091c0ba34f0a // indirect
	github.com/jackc/pgx/v5 v5.3.1 // indirect
	github.com/jinzhu/inflection v1.0.0 // indirect
	github.com/jinzhu/now v1.1.5 // indirect
	github.com/jmespath/go-jmespath v0.4.0 // indirect
	github.com/joho/godotenv v1.5.1 // indirect
	github.com/josharian/intern v1.0.0 // indirect
	github.com/kataras/blocks v0.0.7 // indirect
	github.com/kataras/golog v0.1.8 // indirect
	github.com/kataras/iris/v12 v12.2.0 // indirect
	github.com/kataras/jwt v0.1.8 // indirect
	github.com/kataras/pio v0.0.11 // indirect
	github.com/kataras/sitemap v0.0.6 // indirect
	github.com/kataras/tunnel v0.0.4 // indirect
	github.com/klauspost/compress v1.16.0 // indirect
	github.com/leodido/go-urn v1.2.2 // indirect
	github.com/mailgun/raymond/v2 v2.0.48 // indirect
	github.com/mailjet/mailjet-apiv3-go v0.0.0-20201009050126-c24bc15a9394 // indirect
	github.com/mailru/easyjson v0.7.7 // indirect
	github.com/microcosm-cc/bluemonday v1.0.23 // indirect
	github.com/russross/blackfriday/v2 v2.1.0 // indirect
	github.com/schollz/closestmatch v2.1.0+incompatible // indirect
	github.com/sirupsen/logrus v1.8.1 // indirect
	github.com/tdewolff/minify/v2 v2.12.4 // indirect
	github.com/tdewolff/parse/v2 v2.6.4 // indirect
	github.com/thanhpk/randstr v1.0.5 // indirect
	github.com/valyala/bytebufferpool v1.0.0 // indirect
	github.com/vmihailenco/msgpack/v5 v5.3.5 // indirect
	github.com/vmihailenco/tagparser/v2 v2.0.0 // indirect
	github.com/yosssi/ace v0.0.5 // indirect
	golang.org/x/crypto v0.8.0 // indirect
	golang.org/x/exp v0.0.0-20230425010034-47ecfdc1ba53 // indirect
	golang.org/x/net v0.9.0 // indirect
	golang.org/x/sys v0.8.0 // indirect
	golang.org/x/text v0.9.0 // indirect
	golang.org/x/time v0.3.0 // indirect
	google.golang.org/protobuf v1.29.0 // indirect
	gopkg.in/ini.v1 v1.67.0 // indirect
	gopkg.in/yaml.v3 v3.0.1 // indirect
	gorm.io/datatypes v1.2.0 // indirect
	gorm.io/driver/mysql v1.5.0 // indirect
	gorm.io/driver/postgres v1.5.0 // indirect
	gorm.io/gorm v1.25.0 // indirect
)
